…
  )
```

    ## # A tibble: 98 × 8
    ##    group litter_number gd_of_birth pups_born_alive pups_dead_birth pups_survive
    ##    <chr> <chr>               <dbl>           <dbl>           <dbl>        <dbl>
    ##  1 Con7  #85                    20               3               4            3
    ##  2 Con7  #85                    20               3               4            3
    ##  3 Con7  #1/2/95/2              19               8               0            7
    ##  4 Con7  #1/2/95/2              19               8               0            7
    ##  5 Con7  #5/5/3/83/3-3          19               6               0            5
    ##  6 Con7  #5/5/3/83/3-3          19               6               0            5
    ##  7 Con7  #5/4/2/95/2            19               5               1            4
    ##  8 Con7  #5/4/2/95/2            19               5               1            4
    ##  9 Con7  #4/2/95/3-3            20               6               0            6
    ## 10 Con7  #4/2/95/3-3            20               6               0            6
    ## # ℹ 88 more rows
    ## # ℹ 2 more variables: gd_time <dbl>, weight <dbl>
…
    ## Rows: 49 Columns: 8
    ## ── Column specification ────────────────────────────────────────────────────────
    ## Delimiter: ","
    ## chr (2): Group, Litter Number
    ## dbl (6): GD0 weight, GD18 weight, GD of Birth, Pups born alive, Pups dead @ ...
    ## 
    ## ℹ Use `spec()` to retrieve the full column specification for this data.
    ## ℹ Specify the column types or set `show_col_types = FALSE` to quiet this message.

    ## # A tibble: 49 × 10
    ##    dose  day_of_treatment litter_number   gd0_weight gd18_weight gd_of_birth
    ##    <chr> <chr>            <chr>                <dbl>       <dbl>       <dbl>
    ##  1 Con   7                #85                   19.7        34.7          20
    ##  2 Con   7                #1/2/95/2             27          42            19
    ##  3 Con   7                #5/5/3/83/3-3         26          41.4          19
    ##  4 Con   7                #5/4/2/95/2           28.5        44.1          19
    ##  5 Con   7                #4/2/95/3-3           NA          NA            20
    ##  6 Con   7                #2/2/95/3-2           NA          NA            20
    ##  7 Con   7                #1/5/3/83/3-3/2       NA          NA            20
    ##  8 Con   8                #3/83/3-3             NA          NA            20
    ##  9 Con   8                #2/95/3               NA          NA            20
    ## 10 Con   8                #3/5/2/2/95           28.5        NA            20
    ## # ℹ 39 more rows
    ## # ℹ 4 more variables: pups_born_alive <dbl>, pups_dead_birth <dbl>,
    ## #   pups_survive <dbl>, wt_gain <dbl>
…
